Course Project 1
…
Make a panel plot containing a time series plot (i.e.type = l) of the 5-minute interval (x-axis) and the average number of steps taken, averaged across all weekday days or weekend days (y-axis). See the README file in the GitHub repository to see an example of what this plot should look like using simulated data.

mean_data <- group_by(data, week_day_check, interval) %>%
             summarise(average_steps = mean(steps))

## `summarise()` regrouping output by 'week_day_check' (override with `.groups` argument)

mean_data

## # A tibble: 576 x 3
## # Groups:   week_day_check [2]
##    week_day_check interval average_steps
##    <chr>             <int>         <dbl>
##  1 weekday               0        2.02  
##  2 weekday               5        0.4   
##  3 weekday              10        0.156 
##  4 weekday              15        0.178 
##  5 weekday              20        0.0889
##  6 weekday              25        1.31  
##  7 weekday              30        0.622 
##  8 weekday              35        1.02  
##  9 weekday              40        0     
## 10 weekday              45        1.6   
## #  with 566 more rows
…
